module gitlab.com/test8930941/rest-server

go 1.20

require (
	github.com/gofrs/uuid v4.4.0+incompatible
	github.com/gorilla/mux v1.8.0
	github.com/urfave/cli/v2 v2.25.7
	gitlab.com/test8930941/proto v0.0.1
	google.golang.org/grpc v1.58.3
)

require (
	github.com/cpuguy83/go-md2man/v2 v2.0.2 // indirect
	github.com/golang/protobuf v1.5.3 // indirect
	github.com/russross/blackfriday/v2 v2.1.0 // indirect
	github.com/xrash/smetrics v0.0.0-20201216005158-039620a65673 // indirect
	golang.org/x/net v0.12.0 // indirect
	golang.org/x/sys v0.10.0 // indirect
	golang.org/x/text v0.11.0 // indirect
	google.golang.org/genproto/googleapis/rpc v0.0.0-20230711160842-782d3b101e98 // indirect
	google.golang.org/protobuf v1.31.0 // indirect
)
